{
"discount_factor": 0.99, 
"repeated_actions": 8,
"n_frames": 4,  
"num_actions": 3,   
"policy_clip": 0.1, 
"n_epochs": 10,
"horizon": 2000,
"batch_size": 128,
"learning_rate": 1e-3,
"n_episodes" : 8000,
"n_last_steps_for_no_progress": 100,
"patience":1500
}